{
	"info": {
		"_postman_id": "bbcc4d50-09ca-4f9d-ac79-1ebfc4290ea5",
		"name": "Account",
		"schema": "https://schema.getpostman.com/json/collection/v2.1.0/collection.json"
	},
	"item": [
		{
			"name": "Obter Token - admin",
			"event": [
				{
					"listen": "test",
					"script": {
						"id": "09b237ea-d7de-41bb-9e0a-30c27c73318d",
						"exec": [
							"var data = JSON.parse(responseBody);\r",
							"\r",
							"postman.setEnvironmentVariable(\"Token\", \"Bearer \" + data.data.token);"
						],
						"type": "text/javascript"
					}
				}
			],
			"request": {
				"method": "POST",
				"header": [],
				"body": {
					"mode": "raw",
					"raw": "{\r\n  \"login\": \"marcelo.costa\",\r\n  \"password\": \"123456\"\r\n}",
					"options": {
						"raw": {
							"language": "json"
						}
					}
				},
				"url": {
					"raw": "{{Host}}/v1/token",
					"host": [
						"{{Host}}"
					],
					"path": [
						"v1",
						"token"
					]
				}
			},
			"response": []
		},
		{
			"name": "Obter Token - visitor",
			"event": [
				{
					"listen": "test",
					"script": {
						"id": "a0f4fc66-9702-4d5b-b04c-5841d171911a",
						"exec": [
							"var data = JSON.parse(responseBody);\r",
							"\r",
							"postman.setEnvironmentVariable(\"Token\", \"Bearer \" + data.data.token);"
						],
						"type": "text/javascript"
					}
				}
			],
			"request": {
				"method": "POST",
				"header": [],
				"body": {
					"mode": "raw",
					"raw": "{\r\n  \"login\": \"visitante\",\r\n  \"password\": \"123456\"\r\n}",
					"options": {
						"raw": {
							"language": "json"
						}
					}
				},
				"url": {
					"raw": "{{Host}}/v1/token",
					"host": [
						"{{Host}}"
					],
					"path": [
						"v1",
						"token"
					]
				}
			},
			"response": []
		},
		{
			"name": "Criar Usuario Admin",
			"request": {
				"method": "POST",
				"header": [],
				"body": {
					"mode": "raw",
					"raw": "{\r\n  \"userName\": \"Marcelo Santos Costa\",\r\n  \"login\": \"marcelo.costa\",\r\n  \"password\": \"123456\",\r\n  \"role\": \"Admin\",\r\n  \"active\": true\r\n}",
					"options": {
						"raw": {
							"language": "json"
						}
					}
				},
				"url": {
					"raw": "{{Host}}/v1/user",
					"host": [
						"{{Host}}"
					],
					"path": [
						"v1",
						"user"
					]
				}
			},
			"response": []
		},
		{
			"name": "Criar Usuario - Visitante",
			"request": {
				"method": "POST",
				"header": [],
				"body": {
					"mode": "raw",
					"raw": "{\r\n  \"userName\": \"Usuario Visitante\",\r\n  \"login\": \"visitante\",\r\n  \"password\": \"123456\",\r\n  \"role\": \"Visitor\",\r\n  \"active\": true\r\n}",
					"options": {
						"raw": {
							"language": "json"
						}
					}
				},
				"url": {
					"raw": "{{Host}}/v1/user",
					"host": [
						"{{Host}}"
					],
					"path": [
						"v1",
						"user"
					]
				}
			},
			"response": []
		},
		{
			"name": "Atualizar Usuario",
			"request": {
				"auth": {
					"type": "noauth"
				},
				"method": "PUT",
				"header": [
					{
						"key": "Authorization",
						"value": "{{Token}}",
						"type": "text"
					}
				],
				"body": {
					"mode": "raw",
					"raw": "{\r\n  \"accountId\" : 1, \r\n  \"userName\": \"Marcelo Santos Costa\",\r\n  \"login\": \"marcelo.costa\",\r\n  \"password\": \"123456\",\r\n  \"role\": \"Admin\",\r\n  \"active\": true\r\n}",
					"options": {
						"raw": {
							"language": "json"
						}
					}
				},
				"url": {
					"raw": "{{Host}}/v1/user",
					"host": [
						"{{Host}}"
					],
					"path": [
						"v1",
						"user"
					]
				}
			},
			"response": []
		},
		{
			"name": "Delete Usuario",
			"request": {
				"method": "DELETE",
				"header": [
					{
						"key": "Authorization",
						"value": "{{Token}}",
						"type": "text"
					}
				],
				"url": {
					"raw": "{{Host}}/v1/user/1",
					"host": [
						"{{Host}}"
					],
					"path": [
						"v1",
						"user",
						"1"
					]
				}
			},
			"response": []
		},
		{
			"name": "Listar todos Usuarios",
			"request": {
				"method": "GET",
				"header": [
					{
						"key": "Authorization",
						"value": "{{Token}}",
						"type": "text"
					}
				],
				"url": {
					"raw": "{{Host}}/v1/users",
					"host": [
						"{{Host}}"
					],
					"path": [
						"v1",
						"users"
					]
				}
			},
			"response": []
		},
		{
			"name": "Obter por Id",
			"request": {
				"method": "GET",
				"header": [
					{
						"key": "Authorization",
						"value": "{{Token}}",
						"type": "text"
					}
				],
				"url": {
					"raw": "{{Host}}/v1/users",
					"host": [
						"{{Host}}"
					],
					"path": [
						"v1",
						"users"
					]
				}
			},
			"response": []
		}
	],
	"protocolProfileBehavior": {}
}